[

		{
		"id" : "composition_game_theme_animal_110_id1",
		"type" : "JammoSampleButton",
		"loop-id" : 1,
		"image-filename": "themes/animal/110/crocodile.png",
		"sample-filename" : "themes/animal/110/animalw_110_percussion2_2.wav",
		"x" : 186,
		"y" : 141
		},
		{
		"id" : "composition_game_theme_animal_110_id2",
		"type" : "JammoSampleButton",
		"loop-id" : 2,
		"image-filename": "themes/animal/110/dragonfly.png",
		"sample-filename" : "themes/animal/110/animalw_110_guitar_2.wav",
		"x" : 320,
		"y" : 47
		},
		{
		"id" : "composition_game_theme_animal_110_id3",
		"type" : "JammoSampleButton",
		"loop-id" : 3,
		"image-filename": "themes/animal/110/elephant.png",
		"sample-filename" : "themes/animal/110/animalw_110_bass_2.wav",
		"x" : 315,
		"y" : 226
		},
		{
		"id" : "composition_game_theme_animal_110_id4",
		"type" : "JammoSampleButton",
		"loop-id" : 4,
		"image-filename": "themes/animal/110/salamander.png",
		"sample-filename" : "themes/animal/110/animalw_110_percussion1_2.wav",
		"x" : 133,
		"y" : 251
		},
		{
		"id" : "composition_game_theme_animal_110_id5",
		"type" : "JammoSampleButton",
		"loop-id" : 5,
		"image-filename": "themes/animal/110/snake.png",
		"sample-filename" : "themes/animal/110/animalw_110_vibraslap_2.wav",
		"x" : 448,
		"y" : 117
		},
		{
		"id" : "composition_game_theme_animal_110_id6",
		"type" : "JammoSampleButton",
		"loop-id" : 6,
		"image-filename": "themes/animal/110/spider.png",
		"sample-filename" : "themes/animal/110/animalw_110_pluck_2.wav",
		"x" : 617,
		"y" : 222
		}

]