[
  #Rhythmicloops
  {
    "id": "composition_game_theme_animal_advanced_rhythmic_icon",
    "type": "TangleButton",
    "template": "composition_game_theme_general_advanced_icon_template",
    "$name": "animal",
    "$type": "rhythmic",
    "x": 296,
    "y": 103
  },
  {
    "id": "composition_game_theme_animal_advanced_rhythmic_soundfamily",
    "type": "TangleWidget",
    "visible": false,
    "children": [
      {
        "id": "composition_game_theme_animal_advanced_id1",
        "type": "JammoSampleButton",
        "loop-id": 1,
        "image-filename": "themes/animal/advanced/monkey_1.png",
        "sample-filename": "themes/animal/advanced/Rh_110__54_1_bongo.wav",
        "x": 216,
        "y": 20
      },
      {
        "id": "composition_game_theme_animal_advanced_id2",
        "type": "JammoSampleButton",
        "loop-id": 2,
        "image-filename": "themes/animal/advanced/monkey_2.png",
        "sample-filename": "themes/animal/advanced/Rh_110__54_1_cajon.wav",
        "x": 296,
        "y": 20
      },
      {
        "id": "composition_game_theme_animal_advanced_id3",
        "type": "JammoSampleButton",
        "loop-id": 3,
        "image-filename": "themes/animal/advanced/monkey_3.png",
        "sample-filename": "themes/animal/advanced/Rh_110__54_1_darabouka.wav",
        "x": 216,
        "y": 103
      },
      {
        "id": "composition_game_theme_animal_advanced_id4",
        "type": "JammoSampleButton",
        "loop-id": 4,
        "image-filename": "themes/animal/advanced/monkey_4.png",
        "sample-filename": "themes/animal/advanced/Rh_110__54_1_percussion.wav",
        "x": 396,
        "y": 20
      },
      {
        "id": "composition_game_theme_animal_advanced_id5",
        "type": "JammoSampleButton",
        "loop-id": 5,
        "image-filename": "themes/animal/advanced/monkey_5.png",
        "sample-filename": "themes/animal/advanced/Rh_110__54_1_tabla.wav",
        "x": 396,
        "y": 103
      }
    ]
  },
  #Melodicloops
  {
    "id": "composition_game_theme_animal_advanced_melodic_icon",
    "type": "TangleButton",
    "template": "composition_game_theme_general_advanced_icon_template",
    "$name": "animal",
    "$type": "melodic",
    "x": 101,
    "y": 164
  },
  {
    "id": "composition_game_theme_animal_advanced_melodic_soundfamily",
    "type": "TangleWidget",
    "visible": false,
    "children": [
      {
        "id": "composition_game_theme_animal_advanced_id6",
        "type": "JammoSampleButton",
        "loop-id": 6,
        "image-filename": "themes/animal/advanced/salamander_1.png",
        "sample-filename": "themes/animal/advanced/Me_110_A_54_1_clarinet.wav",
        "x": 120,
        "y": 80
      },
      {
        "id": "composition_game_theme_animal_advanced_id7",
        "type": "JammoSampleButton",
        "loop-id": 7,
        "image-filename": "themes/animal/advanced/salamander_2.png",
        "sample-filename": "themes/animal/advanced/Me_110_C_54_1_flute.wav",
        "x": 51,
        "y": 110
      },
      {
        "id": "composition_game_theme_animal_advanced_id8",
        "type": "JammoSampleButton",
        "loop-id": 8,
        "image-filename": "themes/animal/advanced/salamander_3.png",
        "sample-filename": "themes/animal/advanced/Me_110_D_54_1_marimba.wav",
        "x": 190,
        "y": 204
      },
      {
        "id": "composition_game_theme_animal_advanced_id9",
        "type": "JammoSampleButton",
        "loop-id": 9,
        "image-filename": "themes/animal/advanced/salamander_4.png",
        "sample-filename": "themes/animal/advanced/Me_110_D_54_1_oud.wav",
        "x": 190,
        "y": 120
      },
      {
        "id": "composition_game_theme_animal_advanced_id10",
        "type": "JammoSampleButton",
        "loop-id": 10,
        "image-filename": "themes/animal/advanced/salamander_5.png",
        "sample-filename": "themes/animal/advanced/Me_110_F_54_1_pluck.wav",
        "x": 190,
        "y": 35
      }
    ]
  },
  #Harmonicloops
  {
    "id": "composition_game_theme_animal_advanced_harmonic_icon",
    "type": "TangleButton",
    "template": "composition_game_theme_general_advanced_icon_template",
    "$name": "animal",
    "$type": "harmonic",
    "x": 631,
    "y": 199
  },
  {
    "id": "composition_game_theme_animal_advanced_harmonic_soundfamily",
    "type": "TangleWidget",
    "visible": false,
    "children": [
      {
        "id": "composition_game_theme_animal_advanced_id11",
        "type": "JammoSampleButton",
        "loop-id": 11,
        "image-filename": "themes/animal/advanced/dragonfly_1.png",
        "sample-filename": "themes/animal/advanced/Ha_110_A_54_1_accordion.wav",
        "x": 721,
        "y": 203
      },
      {
        "id": "composition_game_theme_animal_advanced_id12",
        "type": "JammoSampleButton",
        "loop-id": 12,
        "image-filename": "themes/animal/advanced/dragonfly_2.png",
        "sample-filename": "themes/animal/advanced/Ha_110_D_54_1_zither.wav",
        "x": 651,
        "y": 110
      },
      {
        "id": "composition_game_theme_animal_advanced_id13",
        "type": "JammoSampleButton",
        "loop-id": 13,
        "image-filename": "themes/animal/advanced/dragonfly_3.png",
        "sample-filename": "themes/animal/advanced/Ha_110_D_54_1_guitar.wav",
        "x": 721,
        "y": 115
      },
      {
        "id": "composition_game_theme_animal_advanced_id14",
        "type": "JammoSampleButton",
        "loop-id": 14,
        "image-filename": "themes/animal/advanced/dragonfly_4.png",
        "sample-filename": "themes/animal/advanced/Ha_110_G_54_1_guitar.wav",
        "x": 605,
        "y": 110
      },
      {
        "id": "composition_game_theme_animal_advanced_id15",
        "type": "JammoSampleButton",
        "loop-id": 15,
        "image-filename": "themes/animal/advanced/dragonfly_5.png",
        "sample-filename": "themes/animal/advanced/Ha_110_G_54_1_marimba.wav",
        "x": 575,
        "y": 203
      }
    ]
  },
  #Effectloops
   {
    "id": "composition_game_theme_animal_advanced_effect_icon",
    "type": "TangleButton",
    "template": "composition_game_theme_general_advanced_icon_template",
    "$name": "animal",
    "$type": "effect",
    "x": 548,
    "y": 26
  },
  {
    "id": "composition_game_theme_animal_advanced_effect_soundfamily",
    "type": "TangleWidget",
    "visible": false,
    "children": [
      {
        "id": "composition_game_theme_animal_advanced_id16",
        "type": "JammoSampleButton",
        "loop-id": 16,
        "image-filename": "themes/animal/advanced/bird_1.png",
        "sample-filename": "themes/animal/advanced/Fx_110__54_1_birdshout.wav",
        "x": 648,
        "y": 26
      },
      {
        "id": "composition_game_theme_animal_advanced_id17",
        "type": "JammoSampleButton",
        "loop-id": 17,
        "image-filename": "themes/animal/advanced/bird_2.png",
        "sample-filename": "themes/animal/advanced/Fx_110__54_1_monkeyshout.wav",
        "x": 480,
        "y": 26
      },
      {
        "id": "composition_game_theme_animal_advanced_id18",
        "type": "JammoSampleButton",
        "loop-id": 18,
        "image-filename": "themes/animal/advanced/bird_3.png",
        "sample-filename": "themes/animal/advanced/Fx_110__54_1_parrot.wav",
        "x": 480,
        "y": 110
      },
      {
        "id": "composition_game_theme_animal_advanced_id19",
        "type": "JammoSampleButton",
        "loop-id": 19,
        "image-filename": "themes/animal/advanced/bird_4.png",
        "sample-filename": "themes/animal/advanced/Fx_110__54_1_shaker.wav",
        "x": 548,
        "y": 110
      },
      {
        "id": "composition_game_theme_animal_advanced_id20",
        "type": "JammoSampleButton",
        "loop-id": 20,
        "image-filename": "themes/animal/advanced/bird_5.png",
        "sample-filename": "themes/animal/advanced/Fx_110__54_4_rainstick.wav",
        "x": 618,
        "y": 110
      }
    ]
  }
]
