[
  {
    "id": "composition_game_theme_city_140_id1",
    "type": "JammoSampleButton",
    "loop-id": 1,
    "image-filename": "themes/city/140/bicycle.png",
    "sample-filename": "themes/city/140/city_140_guitar1_2.wav",
    "x": 574,
    "y": 136
  },
  {
    "id": "composition_game_theme_city_140_id2",
    "type": "JammoSampleButton",
    "loop-id": 2,
    "image-filename": "themes/city/140/bucket.png",
    "sample-filename": "themes/city/140/city_140_drum_fill_1.wav",
    "x": 504,
    "y": 235
  },
  {
    "id": "composition_game_theme_city_140_id3",
    "type": "JammoSampleButton",
    "loop-id": 3,
    "image-filename": "themes/city/140/kids.png",
    "sample-filename": "themes/city/140/city_140_yell_claps_2.wav",
    "x": 629,
    "y": 215
  },
  {
    "id": "composition_game_theme_city_140_id4",
    "type": "JammoSampleButton",
    "loop-id": 4,
    "image-filename": "themes/city/140/bus.png",
    "sample-filename": "themes/city/140/city_140_guitar_solo_4.wav",
    "x": 84,
    "y": 157
  },
  {
    "id": "composition_game_theme_city_140_id5",
    "type": "JammoSampleButton",
    "loop-id": 5,
    "image-filename": "themes/city/140/guitarhero.png",
    "sample-filename": "themes/city/140/city_140_guitar_riff_2.wav",
    "x": 377,
    "y": 102
  },
  {
    "id": "composition_game_theme_city_140_id6",
    "type": "JammoSampleButton",
    "loop-id": 6,
    "image-filename": "themes/city/140/motorcycle.png",
    "sample-filename": "themes/city/140/city_140_guitar2_2.wav",
    "x": 306,
    "y": 205
  }
]
