[

#THEMES
#######


#EASY THEMES


#Animal theme
#############

	{
	"id": "composition_game_theme_animal_140_data",
	"type": "TangleProperties",
	"backing_track_color_code": "yyyyyyyyoooooooorrrrrrrryyyyyyyy",
	"backing_track_filepath" : "themes/animal/140/backing_track.wav",
	"disabled_slots_for_begin" : 0,
	"disabled_slots_for_end" : 0,
	"tempo_factory" : 4,
	"beats_per_minute" : 140 #this gives name to this theme
	},

	{
	"id": "composition_game_theme_animal_110_data",
	"type": "TangleProperties",
	"backing_track_color_code": "ggggggggbbbbbbbbgggggggg#",
	"backing_track_filepath" : "themes/animal/110/backing_track.wav",
	"disabled_slots_for_begin" : 0,
	"disabled_slots_for_end" : 1,
	"tempo_factory" : 4,
	"beats_per_minute" : 110 #this gives name to this theme
	},

	{
	"id": "composition_game_theme_animal_90_data",
	"type": "TangleProperties",
	"backing_track_color_code": "yyyyyyyyggggggggoooooooo##",
	"backing_track_filepath" : "themes/animal/90/backing_track.wav",
	"disabled_slots_for_begin" : 0,
	"disabled_slots_for_end" : 2,
	"tempo_factory" : 4,
	"beats_per_minute" : 90 #this gives name to this theme
	},


#City theme
###########

	{
	"id": "composition_game_theme_city_140_data",
	"type": "TangleProperties",
	"backing_track_filepath" : "themes/city/140/backing_track.wav",
	"backing_track_color_code": "yyyyyyyybbyyyyyyyybbgggggggbyyyyyyyy##",
	"disabled_slots_for_begin" : 0,
	"disabled_slots_for_end" : 2,
	"tempo_factory" : 4,
	"beats_per_minute" : 140 #this gives name to this theme
	},

	{
	"id": "composition_game_theme_city_110_data",
	"type": "TangleProperties",
	"backing_track_color_code": "bbbbbbbbrrrrbbbbrrrrbbbbrrrr##",
	"backing_track_filepath" : "themes/city/110/backing_track.wav",
	"disabled_slots_for_begin" : 0,
	"disabled_slots_for_end" : 2,
	"tempo_factory" : 4,
	"beats_per_minute" : 110 #this gives name to this theme
	},

	{
	"id": "composition_game_theme_city_90_data",
	"type": "TangleProperties",
	"backing_track_color_code": "ggggggggyyyyllllgggggggg##",
	"backing_track_filepath" : "themes/city/90/backing_track.wav",
	"disabled_slots_for_begin" : 0,
	"disabled_slots_for_end" : 2,
	"tempo_factory" : 4,
	"beats_per_minute" : 90 #this gives name to this theme
	},


#Fantasy theme
	{
	"id": "composition_game_theme_fantasy_140_data",
	"type": "TangleProperties",
	"backing_track_color_code": "#yyyyyyyyppppppppyyyyyyyypppppppp###",
	"backing_track_filepath" : "themes/fantasy/140/backing_track.wav",
	"disabled_slots_for_begin" : 1,
	"disabled_slots_for_end" : 3,
	"tempo_factory" : 4,
	"beats_per_minute" : 140 #this gives name to this theme
	},

	{
	"id": "composition_game_theme_fantasy_110_data",
	"type": "TangleProperties",
	"backing_track_color_code": "bbbbbbbbbbbbbbbbrrrrrrrrvvvvvvvvbbbbbbbb##",
	"backing_track_filepath" : "themes/fantasy/110/backing_track.wav",
	"disabled_slots_for_begin" : 0,
	"disabled_slots_for_end" : 2,
	"tempo_factory" : 3,
	"beats_per_minute" : 110 #this gives name to this theme
	},

	{
	"id": "composition_game_theme_fantasy_90_data",
	"type": "TangleProperties",
	"backing_track_color_code": "llllvvvvvvvvllllllllvvvvvvvvrrrrrrrrvvvv",
	"backing_track_filepath" : "themes/fantasy/90/backing_track.wav",
	"disabled_slots_for_begin" : 0,
	"disabled_slots_for_end" : 0,
	"tempo_factory" : 3,
	"beats_per_minute" : 90 #this gives name to this theme
	},



################
#ADVANCED THEMES
################

#Fantasy advanced
	{
	"id": "composition_game_theme_fantasy_advanced_1_data",
	"type": "TangleProperties",
	"backing_track_filepath" : "themes/fantasy/advanced/backing_track_variation_1.wav", # 'rhythmic'
	"backing_track_color_code":"rrrrrrrrbbbbbbbbrrrrrrrrbbbbbbbbrrrrrrrr",
	"disabled_slots_for_begin" : 0,
	"disabled_slots_for_end" : 0,
	"tempo_factory" : 3,
	"beats_per_minute" : 90
	},
	{
	"id": "composition_game_theme_fantasy_advanced_2_data",
	"type": "TangleProperties",
	"backing_track_filepath" : "themes/fantasy/advanced/backing_track_variation_2.wav", # 'strings'
	"backing_track_color_code": "bbbbvvvvbbbbvvvvrrrrbbbbvvvvbbbbvvvvrrrr",
	"disabled_slots_for_begin" : 0,
	"disabled_slots_for_end" : 0,
	"tempo_factory" : 3,
	"beats_per_minute" : 90
	},
	{
	"id": "composition_game_theme_fantasy_advanced_3_data",
	"type": "TangleProperties",
	"backing_track_filepath" : "themes/fantasy/advanced/backing_track_variation_3.wav", # 'synth'
	"backing_track_color_code": "vvvvbbbbvvvvbbbbvvvvbbbbllllvvvvvvvv####",
	"disabled_slots_for_begin" : 0,
	"disabled_slots_for_end" : 4,
	"tempo_factory" : 3,
	"beats_per_minute" : 90
	},

#City advanced
	{
	"id": "composition_game_theme_city_advanced_1_data",
	"type": "TangleProperties",
	"backing_track_filepath" : "themes/city/advanced/backing_track_variation_1.wav", # 'drums'
	"backing_track_color_code": "yyyyrrrryyyyyyyyrrrrrrrryyyyyyyyrrrrrrrr##",
	"disabled_slots_for_begin" : 0,
	"disabled_slots_for_end" : 2,
	"tempo_factory" : 4,
	"beats_per_minute" : 140
	},
	{
	"id": "composition_game_theme_city_advanced_2_data",
	"type": "TangleProperties",
	"backing_track_filepath" : "themes/city/advanced/backing_track_variation_2.wav",# 'guitar'
	"backing_track_color_code": "rrrrrrrrooooyyyyyyyyrrrrrrrryyyyyyyyoooo##",
	"disabled_slots_for_begin" : 0,
	"disabled_slots_for_end" : 2,
	"tempo_factory" : 4,
	"beats_per_minute" : 140
	},
	{
	"id": "composition_game_theme_city_advanced_3_data",
	"type": "TangleProperties",
	"backing_track_filepath" : "themes/city/advanced/backing_track_variation_3.wav", # 'synth'
	"backing_track_color_code": "rrrroooorrrroooorrrroooorrrroooorrrroooo##",
	"disabled_slots_for_begin" : 0,
	"disabled_slots_for_end" : 2,
	"tempo_factory" : 4,
	"beats_per_minute" : 140
	},

#Animal advanced
	{
	"id": "composition_game_theme_animal_advanced_1_data",
	"type": "TangleProperties",
	"backing_track_filepath" : "themes/animal/advanced/backing_track_variation_1.wav", # 'drumming/percussion'
	"backing_track_color_code": "ggggyyyyvvvvyyyygggggggg#",   #this is one slot shorter than another in this theme
	"disabled_slots_for_begin" : 0,
	"disabled_slots_for_end" : 1,
	"tempo_factory" : 5,
	"beats_per_minute" : 110
	},
	{
	"id": "composition_game_theme_animal_advanced_2_data",
	"type": "TangleProperties",
	"backing_track_filepath" : "themes/animal/advanced/backing_track_variation_2.wav",# 'flute'
	"backing_track_color_code": "rrrrrrrroooooooorrrrrrrr##",
	"disabled_slots_for_begin" : 0,
	"disabled_slots_for_end" : 2,
	"tempo_factory" : 5,
	"beats_per_minute" : 110
	},
	{
	"id": "composition_game_theme_animal_advanced_3_data",
	"type": "TangleProperties",
	"backing_track_filepath" : "themes/animal/advanced/backing_track_variation_3.wav", # 'marimba'
	"backing_track_color_code": "yyyyggggyyyyggggyyyygggg##",
	"disabled_slots_for_begin" : 0,
	"disabled_slots_for_end" : 2,
	"tempo_factory" : 5,
	"beats_per_minute" : 110
	}





]
