[
  {
    "id": "composition_game_theme_fantasy_110_id1",
    "type": "JammoSampleButton",
    "loop-id": 1,
    "image-filename": "themes/fantasy/110/dragon.png",
    "sample-filename": "themes/fantasy/110/castle_110_clarinet_4.wav",
    "x": 221,
    "y": 39
  },
  {
    "id": "composition_game_theme_fantasy_110_id2",
    "type": "JammoSampleButton",
    "loop-id": 2,
    "image-filename": "themes/fantasy/110/faerie.png",
    "sample-filename": "themes/fantasy/110/castle_110_glockenspiel_2.wav",
    "x": 506,
    "y": 201
  },
  {
    "id": "composition_game_theme_fantasy_110_id3",
    "type": "JammoSampleButton",
    "loop-id": 3,
    "image-filename": "themes/fantasy/110/flower.png",
    "sample-filename": "themes/fantasy/110/castle_110_piano_2.wav",
    "x": 631,
    "y": 243
  },
  {
    "id": "composition_game_theme_fantasy_110_id4",
    "type": "JammoSampleButton",
    "loop-id": 4,
    "image-filename": "themes/fantasy/110/ghost.png",
    "sample-filename": "themes/fantasy/110/castle_110_flute_2.wav",
    "x": 548,
    "y": 26
  },
  {
    "id": "composition_game_theme_fantasy_110_id5",
    "type": "JammoSampleButton",
    "loop-id": 5,
    "image-filename": "themes/fantasy/110/owl.png",
    "sample-filename": "themes/fantasy/110/castle_110_owl_2.wav",
    "x": 627,
    "y": 158
  },
  {
    "id": "composition_game_theme_fantasy_110_id6",
    "type": "JammoSampleButton",
    "loop-id": 6,
    "image-filename": "themes/fantasy/110/wolf.png",
    "sample-filename": "themes/fantasy/110/castle_110_wolf_4.wav",
    "x": 81,
    "y": 274
  }
]
