[

	{
	"id": "global_game_properties",
	"type": "TangleProperties",
	"easy_game_level" : true
	},


	{
		"id": "non-continuous-scroll-action-template",
		"type": "TangleTemplate",
		"object-type-name": "TangleScrollAction",
		"bind-to-scroll-trick": true,
		"continuous-x": false,
		"continuous-y": false
	},


	{
		"id": "non-repeat-y-scroll-trick-template",
		"type": "TangleTemplate",
		"object-type-name": "TangleScrollTrick",
		"axis": "y-axis"
	},
	{
		"id": "non-repeat-y-fixed-layout-template",
		"type": "TangleTemplate",
		"object-type-name": "TangleFixedLayout",
		"trick": "non-repeat-y-scroll-trick-template"
	},

	{
		"id": "non-continuous-vertical-scroll-widget-template",
		"type": "TangleTemplate",
		"object-type-name": "TangleWidget",
		"layout": "non-repeat-y-fixed-layout-template",
		"action": "non-continuous-scroll-action-template",
		"reactive": true,
		"clip-to-allocation": true
	},


	{
		"id": "non-repeat-x-scroll-trick-template",
		"type": "TangleTemplate",
		"object-type-name": "TangleScrollTrick",
		"axis": "x-axis"
	},
	{
		"id": "non-repeat-x-fixed-layout-template",
		"type": "TangleTemplate",
		"object-type-name": "TangleFixedLayout",
		"trick": "non-repeat-x-scroll-trick-template"
	},

	{
		"id": "non-continuous-horizontal-scroll-widget-template",
		"type": "TangleTemplate",
		"object-type-name": "TangleWidget",
		"layout": "non-repeat-x-fixed-layout-template",
		"action": "non-continuous-scroll-action-template",
		"reactive": true,
		"clip-to-allocation": true
	},



	{
		"id": "jammo3_6_main-layout",
		"type": "TangleStackLayout"
	},

	{
		"id": "jammo3_6_main-views-layout",
		"type": "TangleStackLayout"
	},

	{
		"id": "welcome-background",
		"type": "TangleTexture",
		"filename": "welcome.png"
	},

	{
		"id": "main-menu-background",
		"type": "TangleTexture",
		"filename": "house.png"
	},
	

	{
		"id": "language-selection-background",
		"type": "TangleTexture",
		"filename": "language_ground.png"
	},

	{
	"id" : "mute_button_texture_for_panel_template",
	"type" :"TangleTemplate",
	"object-type-name": "TangleTexture",
	"filename" : "sequencer/button_mute.png"
	},

	{
	"id" : "mute_button_texture_pressed_for_panel_template",
	"type" :"TangleTemplate",
	"object-type-name": "TangleTexture",
	"filename" : "sequencer/button_mute_pressed.png"
	},


	{
	"id": "cross-texture-template",
	"type":"TangleTemplate",
	"object-type-name":  "TangleTexture",
	"filename": "cross_icon.png"
	},
	{
	"id": "cross-texture-interactive-template",
	"type":"TangleTemplate",
	"object-type-name":  "TangleTexture",
	"filename": "cross_icon_pressed.png"
	},

	{
	"id": "cross-button-template",
	"type":"TangleTemplate",
	"object-type-name": "TangleButton",
	"name": "cancel",
	"x": 675,
	"y": 0,
	"normal-background-actor": "cross-texture-template",
	"interactive-background-actor" : "cross-texture-interactive-template"
	},




	{
		"id"         : "saving-dialog-background",
		"type": "ClutterRectangle",
		"color": "#3cdbee",
		"opacity"    : 200,
		"reactive"   : true
	},


	{
		"id": "mentor-texture",
		"type": "TangleTexture",
		"filename": "mentor.png"
	},

	{
		"id": "main-mentor-widget",
		"type": "TangleWidget",
		"pickable": false,
		"depth-position": 10,
		"children": [
			{
				"id": "mentor",
				"type": "JammoMentor",
				"normal-background-actor": "mentor-texture",
				"standby-scale": 0.25,
				"active-scale": 1.0,
				"idle-timeout": 10,
				"x": 0.0,
				"y": 0.0
			}
		]
		
	},

	{
		"id": "main-menu-mentor-activity",
		"type": "JammoMentorActivity",
		"speech": "main_menu_welcome.spx",
		"speak-once": true,
		"idle-speech": "main_menu_idle.spx",
		"@main-menu-view:show-completed": "tangle_activity_activate"
	},

	{
		"id": "easy-selection-mentor-activity",
		"type": "JammoMentorActivity",
		"speech": "skill_selection_welcome.spx",
		"speak-once": true,
		"idle-speech": "skill_selection_welcome.spx",
		"@easy-selection-view:show-completed": "tangle_activity_activate"
	},

	{
		"id": "language-selection-mentor-activity",
		"type": "JammoMentorActivity",
		"speech": "language_selection_welcome.spx",
		"speak-once": true,
		"idle-speech": "language_selection_idle.spx",
		"@language-selection-view:show-completed": "tangle_activity_activate"
	},

	{
		"id": "duetto-selection-mentor-activity",
		"type": "JammoMentorActivity",
		"speech": "singmode_welcome.spx",
		"speak-once": true,
		"idle-speech": "singmode_welcome.spx",
		"@duetto-selection-view:show-completed": "tangle_activity_activate"
	},

	{
		"id": "themeselection-mentor-activity",
		"type": "JammoMentorActivity",
		"speech": "themeselection_welcome.spx",
		"speak-once": true,
		"idle-speech": "themeselection_idle.spx",
		"@themeselection-view:show-completed": "tangle_activity_activate"
	},

	{
		"id": "pairgamemenu-mentor-activity",
		"type": "JammoMentorActivity",
		"speech": "pairgamemenu_welcome.spx",
		"speak-once": true,
		"idle-speech": "pairgamemenu_idle.spx",
		"@pairgamemenu-view:show-completed": "tangle_activity_activate"
	},

	{
		"id": "compositiongame-mentor-activity",
		"type": "JammoMentorActivity",
		"speech": "composing_welcome.spx",
		"speak-once": true,
		"idle-speech": "composing_idle.spx",
		"@compositiongame-view:show-completed": "tangle_activity_activate"
	},

	{
		"id":  "saving-dialog-mentor-activity",
		"type": "JammoMentorActivity",
		"speech": "composing_select_icon.spx",
		"speak-once": false,
		"idle-speech": "composing_select_icon.spx",
		"@saving-dialog-view:show-completed": "tangle_activity_activate"
	},



#Common shared buttons/elements on composing-game (these are uniques):

	{
	"id"         : "composition_game_play_texture",
	"type"       : "TangleTexture",
	"filename"   : "buttons/play-button.png"
	},

	{
	"id"         : "composition_game_stop_texture",
	"type"       :  "TangleTexture",
	"filename"   : "buttons/stop-button.png"
	},

	{
	"id"     : "composition_game_container_for_tracks",
	"type"   : "TangleWidget",
	"template": "non-continuous-horizontal-scroll-widget-template"
	},






	{
		"id": "main-views-widget",
		"type": "TangleWidget",
		"layout": "jammo3_6_main-views-layout",
		"children": [
			{
				"id": "welcome-view",
				"type": "TangleView",
				"background-actor": "welcome-background",
				"filename": "welcome.json",
				"show-on-set-parent": true
			},

			{
				"id": "main-menu-view",
				"type": "TangleView",
				"background-actor":"main-menu-background",
				"filename": "main-menu.json",
				"show-on-set-parent": false,
				"visible": false,
				"depth-position": -1,
				"@show-completed": "main_menu_show_completed"
			},

			{
				"id": "pen-gesture-view",
				"type": "TangleView",
				"filename": "pengesture.json",
				"show-on-set-parent": false,
				"visible": false
			},


			{
				"id": "quitconfirmation-view",
				"type": "TangleView",
				"filename": "quitconfirmation.json",
				"show-on-set-parent": false,
				"visible": false,
				"@show-completed": "quitconfirmation_mentor_action"
			},

			{
				"id": "songselection-view",
				"type": "TangleView",
				"background-color":  "#6dff25",
				"filename": "songselection.json",
				"show-on-set-parent": false,
				"visible": false,
				"@show-completed": "singinggame_start_songselection"
			},

			{
				"id": "themeselection-view",
				"type": "TangleView",
				"background-color": "#3cdbee",
				"filename": "themeselection.json",
				"show-on-set-parent": false,
				"visible": false
			},

			{
				"id": "pairgamemenu-view",
				"type": "TangleView",
				"background-color": "#3cdbee",
				"filename": "pair_game_menu.json",
				"show-on-set-parent": false,
				"visible": false
			},

			{
				"id": "saving-dialog-view",
				"type": "TangleView",
				"background-actor": "saving-dialog-background",
				"filename": "saving_dialog.json",
				"show-on-set-parent": false,
				"visible": false,
				"depth-position" : 6,
				"reactive"   : true
			},

			{
				"id": "cupboard-view",
				"type": "TangleView",
				"background-color":  "#6dff25",
				"filename": "cupboard.json",
				"show-on-set-parent": false,
				"visible": false,
				"@show-completed": "cupboard_start_cupboard"
			},

			{
				"id": "language-selection-view",
				"type": "TangleView",
				"background-color": "#9edb74",
				"background-actor": "language-selection-background",
				"filename": "language-selection.json",
				"show-on-set-parent": false,
				"visible": false
			},

			{
				"id": "duetto-selection-view",
				"type": "TangleView",
				"background-color":  "#6dff25",
				"filename": "duetto-selection.json",
				"show-on-set-parent": false,
				"visible": false
			},

			{
				"id": "easy-selection-view",
				"type": "TangleView",
				"background-color":  "#6dff25",
				"filename": "easy-selection.json",
				"show-on-set-parent": false,
				"visible": false
			},

			{
				"id": "compositiongame-view",
				"type": "TangleView",
				"filename": "composition_game.json",
				"show-on-set-parent": false,
				"visible": false
			},

			{  #Container for shared elements on composing_game
			"id": "composition_game_buttons",
			"type": "TangleWidget",
			"visible" : false,
			"depth-position" : 5,
			"width" : 800,
			"height" : 480,
			"children": [
				{
				"id"         : "composition_game_play",
				"name"       : "play",
				"type"       : "TangleButton",
				"x"          : 0,
				"y"          : 195,
				"button-mode" : "selectable",
				"normal-background-actor": "composition_game_play_texture",
				"selected-background-actor": "composition_game_stop_texture",
				"@clicked": "composition_game_play_clicked"
				},

				"composition_game_container_for_tracks",

				{
					"id"         : "composition_game_cross",
					"type"       : "TangleButton",
					"template"   : "cross-button-template",
					"@clicked": "composition_game_cross_clicked"
				}


			]
			}




		]

	},


	{
	"id" : "wait",
	"type" : "TangleWidget",
	"depth-position" : 9,
	"visible" : true,
	"children" : [
		{
		"id": "wait-texture",
		"type": "TangleTexture",
		"x" : 370,
		"y" : 100,
		"filename": "hourglass.png"
		}
	]
	},

	#When user selects song, this mask is showed (it is totally transparent)
	#It then blocks accidental double clicks (and also user can't quit during animation)
	{
	"id": "mask-for-preventing-double-clicks",
	"type" : "TangleWidget",
	"depth-position" : 10,
	"visible" : false,
	"children" : [
		{
		"id": "mask-texture",
		"type": "ClutterRectangle",
		"color": "#ffffff00",
		"x" : 0,
		"y" : 0,
		"width" : 800,
		"height" : 480,
		"reactive" : true
		}
	]
	},

	{
		"id": "main",
		"type": "TangleWidget",
		"width": 800.0,
		"height": 480.0,
		"layout": "jammo3_6_main-layout",
		"children": [
			"main-views-widget",
			"main-mentor-widget",
			"wait",
			"mask-for-preventing-double-clicks"
		]
	}

]

