[

	{
		"id"   : "pair_game_menu_cross",
		"type": "TangleButton",
		"template": "cross-button-template",
		"@clicked": "main_menu_go_back_to_main_menu"
	},



	{
	  "id"         : "pair_game_menu_create_texture",
	  "type"       : "TangleTexture",
	  "filename"   : "sequencer/button_community.png"
	},

	{ 
	  "id"         : "pair_game_menu_create",
	  "type"       : "TangleButton",
	  "x"          : 200,
	  "y"          : 10,
		"normal-background-actor": "pair_game_menu_create_texture",
		"@clicked":  "themeselection_create_game"
	},



	{
	  "id"         : "pair_game_menu_alone_texture",
	  "type"       : "TangleTexture",
	  "filename"   : "solo_icon.png"
	},

	{ 
	  "id"         : "pair_game_menu_alone",
	  "type"       : "TangleButton",
	  "x"          : 350,
	  "y"          : 0,
		"normal-background-actor": "pair_game_menu_alone_texture",
		"@clicked":  "main_menu_theme_clicked"
	},


	{
		"id"     : "pair_game_menu_game_list",
		"type"     : "TangleWidget",
		"template" : "non-continuous-vertical-scroll-widget-template",
		"x": 0, 
		"y": 95,
		"width": 672,
		"height": 380
	}


]

