[

	{
		"id": "welcome-door-texture",
		"type": "TangleTexture",
		"filename": "door.png"
	},

	{
		"id": "welcome-door",
		"type": "TangleButton",
		"x": 225,
		"y": 19,
		"@clicked": "welcome_door_clicked",
		"normal-background-actor": "welcome-door-texture"
	},

	{
		"id": "welcome-version-info",
		"type": "ClutterText",
		"x": 0,
		"y": 0,
		"visible" : false
	}

]

