{
"pitch" : "D",
"tempo" : 110,
"duration" : 98181814058,

"format-version" : 2,
"Author" : "author",

"tracks" : [
	{
	"track-type" : "BackingTrack",
	"name" : "BackingTrack",
	"image-file" : "backingtracks/icon_kiiriminna.png",
	"audio-file" : "backingtracks/Sa_kiiriminna_$t_$p.ogg"
	},

	{
	"track-type" : "EditingTrack",
	"name" : "Track1",
	"editing-track-type" : "untyped",
	"slot-width" : 40,
	"samples" : [
	]
	},

	{
	"track-type" : "EditingTrack",
	"name" : "Track2",
	"editing-track-type" : "untyped",
	"slot-width" : 40,
	"samples" : [
	]
	},

	{
	"track-type" : "EditingTrack",
	"name" : "Track3",
	"editing-track-type" : "untyped",
	"slot-width" : 40,
	"samples" : [
	]
	}

]
}
