[
    #For editor
    {
        "id": "avatar_view_home_texture",
        "type": "TangleTexture",
        "filename": "sequencer/button_home.png"
    },
    {
        "id": "avatar_view_community_texture",
        "type": "TangleTexture",
        "filename": "sequencer/button_community.png"
    },
    {
        "id": "avatar_view_mentor_image",
        "type": "TangleTexture",
        "filename": "communitymenu/community_mentor_icon.png"
    },
    {
        "id": "change-body-color-image",
        "type": "TangleTexture",
        "filename": "communitymenu/community_avatar_changebodycolor.png"
    },
    {
        "id": "change-hair-type-image",
        "type": "TangleTexture",
        "filename": "communitymenu/community_avatar_changehairtype.png"
    },
    {
        "id": "change-hair-color-image",
        "type": "TangleTexture",
        "filename": "communitymenu/community_avatar_changehaircolor.png"
    },
    {
        "id": "change-head-image",
        "type": "TangleTexture",
        "filename": "communitymenu/community_avatar_changeiheadcolor.png"
    },
    {
        "id": "change-eye-image",
        "type": "TangleTexture",
        "filename": "communitymenu/community_avatar_changeeye.png"
    },
    {
        "id": "avatar-editor-specific-container",
        "type": "TangleWidget",
        "depth-position": 3,
        "children": [
            {
                "id": "avatar-view-gohome",
                "type": "TangleButton",
                "x": 700,
                "y": 230,
                "name": "gohome",
                "normal-background-actor": "avatar_view_home_texture",
                "@clicked": "avatar_goto_startmenu"
            },
            {
                "id": "avatar-view-gotocommunity",
                "type": "TangleButton",
                "x": 710,
                "y": 140,
                "name": "gotocommunity",
                "normal-background-actor": "avatar_view_community_texture",
                "@clicked": "avatar_goto_communitymenu"
            },
            {
                "id": "avatar-view-mentor",
                "type": "TangleButton",
                "x": "710",
                "y": "50",
                "normal-background-actor": "avatar_view_mentor_image"
            },
            {
                "id": "body-color-change-button",
                "type": "TangleButton",
                "x": 40,
                "y": 300,
                "normal-background-actor": "change-body-color-image",
                "@clicked": "show_body_color_dialog"
            },
            {
                "id": "hair-type-change-button",
                "type": "TangleButton",
                "x": 100,
                "y": 300,
                "normal-background-actor": "change-hair-type-image",
                "@clicked": "show_hair_dialog"
            },
            {
                "id": "hair-color-change-button",
                "type": "TangleButton",
                "x": 160,
                "y": 300,
                "normal-background-actor": "change-hair-color-image",
                "@clicked": "show_hair_color_dialog"
            },
            {
                "id": "head-change-button",
                "type": "TangleButton",
                "x": 220,
                "y": 300,
                "normal-background-actor": "change-head-image",
                "@clicked": "show_head_color_dialog"
            },
            {
                "id": "eye-change-button",
                "type": "TangleButton",
                "x": 280,
                "y": 300,
                "normal-background-actor": "change-eye-image",
                "@clicked": "show_eye_dialog"
            }
        ]
    },

    #For viewer
    {
        "id": "profile_viewer_back_texture",
        "type": "TangleTexture",
        "filename": "communitymenu/community_rightarrow.png"
    },
    {
        "id": "roster-viewer-specific-container",
        "type": "TangleWidget",
        "depth-position": 3,
        "children": [
            {
                "id": "profile-back-button",
                "type": "TangleButton",
                "normal-background-actor": "profile_viewer_back_texture",
                "x": 700,
                "y": 200,
                "depth-position": 9,
                "@clicked": "end_profile_view"
            },
            {
                "id": "avatar_age_text",
                "type": "ClutterText",
                "color": "#AAAAAAFF",
                "font-name": "Comic Sans MS",
                "x": 275,
                "y": 210
            },
            {
                "id": "avatar_age_textfield",
                "type": "ClutterText",
                "color": "#EEEEEEFF",
                "font-name": "Comic Sans MS",
                "line-wrap-mode": "PANGO_WRAP_WORD_CHAR",
                "selection-color": "#22ffddcc",
                "x": 320,
                "y": 210,
                "width": 340
            },
            {
                "id": "line#5",
                "type": "ClutterRectangle",
                "color": "#222244AA",
                "height": 3,
                "width": 400,
                "x": 275,
                "y": 234
            }
        ]
    },


    #General
    {
        "id": "roster-background-wrapper",
        "type": "TangleWidget",
        "depth-position": 1,
        "children": [
            {
                "id": "avatar-background",
                "type": "TangleTexture",
                "filename": "communitymenu/community_avatar_background.png",
                "width": 810,
                "height": 380
            }
        ]
    },
    {
        "id": "avatar-widgets",
        "type": "TangleWidget",
        "depth-position": 2,
        "children": [
            {
                "id": "profile-background",
                "type": "TangleTexture",
                "filename": "communitymenu/community_avatar_avatarbackground.png",
                "x": 35,
                "y": 25
            },
            {
                "id": "instrument-background",
                "type": "TangleTexture",
                "filename": "communitymenu/community_avatar_avatarbackground.png",
                "width": 110,
                "height": 110,
                "x": 503,
                "y": 238
            },
            {
                "id": "avatar_name_text",
                "type": "ClutterText",
                "color": "#AAAAAAFF",
                "font-name": "Comic Sans MS",
                "x": 275,
                "y": 80
            },
            {
                "id": "avatar_name_textfield",
                "type": "ClutterText",
                "color": "#EEEEEEFF",
                "font-name": "Comic Sans MS",
                "editable": true,
                "reactive": true,
                "line-wrap-mode": "PANGO_WRAP_WORD_CHAR",
                "selection-color": "#22ffddcc",
                "x": 330,
                "y": 80,
                "width": 340
            },
            {
                "id": "avatar_gender_text",
                "type": "ClutterText",
                "color": "#AAAAAAFF",
                "font-name": "Comic Sans MS",
                "x": 275,
                "y": 120
            },
            {
                "id": "avatar_gender_textfield",
                "type": "ClutterText",
                "color": "#EEEEEEFF",
                "font-name": "Comic Sans MS",
                "editable": true,
                "reactive": true,
                "line-wrap-mode": "PANGO_WRAP_WORD_CHAR",
                "selection-color": "#22ffddcc",
                "x": 345,
                "y": 120,
                "width": 325
            },
            {
                "id": "avatar_hobbies_text",
                "type": "ClutterText",
                "color": "#AAAAAAFF",
                "font-name": "Comic Sans MS",
                "x": 275,
                "y": 160
            },
            {
                "id": "avatar_hobbies_textfield",
                "type": "ClutterText",
                "color": "#EEEEEEFF",
                "font-name": "Comic Sans MS",
                "line-wrap-mode": "PANGO_WRAP_WORD_CHAR",
                "editable": true,
                "reactive": true,
                "x": 360,
                "y": 160,
                "width": 325,
                "height": 50,
                "selection-color": "#22ffddcc"
            },
            {
                "id": "avatar_instrument_text",
                "type": "ClutterText",
                "color": "#AAAAAAFF",
                "font-name": "Comic Sans MS",
                "x": 275,
                "y": 240
            },
            {
                "id": "line#1",
                "type": "ClutterRectangle",
                "color": "#222244AA",
                "height": 3,
                "width": 400,
                "x": 275,
                "y": 100
            },
            {
                "id": "line#2",
                "type": "ClutterRectangle",
                "color": "#222244AA",
                "height": 3,
                "width": 400,
                "x": 275,
                "y": 140
            },
            {
                "id": "line#3",
                "type": "ClutterRectangle",
                "color": "#222244AA",
                "height": 3,
                "width": 400,
                "x": 275,
                "y": 180
            },
            {
                "id": "line#4",
                "type": "ClutterRectangle",
                "color": "#222244AA",
                "height": 3,
                "width": 400,
                "x": 275,
                "y": 204
            }
        ]
    },
    {
        "id": "avatar-parts-list",
        "type": "TangleWidget",
        "template": "continuous-horizontal-scroll-box-widget-template",
        "x": 0,
        "y": 380,
        "width": 800,
        "height": 100
    }
]
