[
#This file contains only tamplates (TangleTemplates).
#LevelX.jsons should construct 'view for fullsequencer'

#Most outer container is "fullsequencer-view-container-template"
#It is formed by three views:
#  "fullsequencer-wheelgame-container", (top most)
#  "fullsequencer-container-for-sequencer-view-template", (middle one)
#  "fullsequencer-container-for-general-view" (most bottom)



	#Main container containing three subviews.
	{
	"id": "fullsequencer-view-container-template",
	"type": "TangleTemplate",
  "object-type-name": "TangleWidget",
	"template": "threshold-scroll-vertical-box-widget-template",
	"width": 800,
	"height": 480
	},


	{
	"id": "fullsequencer-button_tosequencer-texture-template",
	"type": "TangleTemplate",
	"object-type-name":"TangleTexture",
	"filename": "sequencer/button_tosequencer.png"
	},

	{
	"id" : "fullsequencer-button_tosequencer",
	"type" : "TangleTemplate",
	"object-type-name": "TangleButton",
	"normal-background-actor": "fullsequencer-button_tosequencer-texture-template",
	"@clicked":  "sequencer_change_to_sequencer_view"
	},


################################################

#Wheel-game -view
#################

	{
	"id" : "wheel_label_texture_rhythm_template",
	"type": "TangleTemplate",
	"object-type-name" :  "TangleTexture",
	"filename"   : "sequencer/label_loop_rhythm.png",
	"x" : 110
	},

	{
	"id" : "wheel_label_texture_melody_template",
	"type": "TangleTemplate",
	"object-type-name" :  "TangleTexture",
	"filename"   : "sequencer/label_loop_melody.png",
	"x" : 256
	},

	{
	"id" : "wheel_label_texture_harmony_template",
	"type": "TangleTemplate",
	"object-type-name" :  "TangleTexture",
	"filename"   : "sequencer/label_loop_harmony.png",
	"x" : 404
	},

	{
	"id" : "wheel_label_texture_effect_template",
	"type": "TangleTemplate",
	"object-type-name" :  "TangleTexture",
	"filename"   : "sequencer/label_loop_effect.png",
	"x" : 553
	},

	{
	"id":	"fullsequencer-wheel-game-labels-template",
	"type": "TangleTemplate",
	"object-type-name": "TangleWidget",
	"child-templates": [
		"wheel_label_texture_rhythm_template",
		"wheel_label_texture_melody_template",
		"wheel_label_texture_harmony_template",
		"wheel_label_texture_effect_template"
	]
	},



	{
	"id"      : "fullsequencer-loop_backgound-texture",
	"type"    :"TangleTemplate",
	"object-type-name": "TangleTexture",
	"filename" : "wheel_game/wheel_game_background.png"
	},

	{
	"id" : "fullsequencer-loop-wheel-back-template",
	"type": "TangleTemplate",
	"object-type-name": "TangleTexture",
	"filename" : "wheel_game/wheel_back.png"
	},


	{
	"id": "wheel_scroller_template",
	"type": "TangleTemplate",
	"object-type-name": "TangleWidget",
	"template": "continuous-vertical-scroll-box-widget-template",
	"y": 50,
	"width": 116,  #95 is preferred for content
	"height": 430,
	"background-actor" : "fullsequencer-loop-wheel-back-template"
	},


	{
	"id"      : "fullsequencer-render-song-texture-template",
	"type"    : "TangleTemplate",
	"object-type-name": "TangleTexture",
	"filename" : "sequencer/cd_button.png"
	},


	{
	"id"      : "fullsequencer-save-project-texture-template",
	"type"    : "TangleTemplate",
	"object-type-name": "TangleTexture",
	"filename" : "sequencer/save_project.png"
	},


	{
	"id" : "fullsequencer-mysongs-texture-template",
	"type"    : "TangleTemplate",
	"object-type-name": "TangleTexture",
	"filename" : "sequencer/drumpad_pressed.png"
	},

	{
	"id": "fullsequencer-loop-cannot-fail-texture-template",
	"type": "TangleTemplate",
	"object-type-name":"TangleTexture",
	"filename": "wheel_game/button_cannotfail.png"
	},


	{
	"id": "fullsequencer-loop-crazy-texture-template",
	"type": "TangleTemplate",
	"object-type-name":"TangleTexture",
	"filename": "wheel_game/button_crazy.png"
	},

	{
	"id": "fullsequencer-loop-playall-texture-template",
	"type": "TangleTemplate",
	"object-type-name":"TangleTexture",
	"filename": "wheel_game/button_arrow.png"
	},



	{
	"id": "fullsequencer-loop-cannot-fail-template",
	"type": "TangleTemplate",
	"object-type-name":"TangleButton",
	"x": 680,
	"y": 135,
	"normal-background-actor": "fullsequencer-loop-cannot-fail-texture-template",
	"@clicked": "fullsequencer_loop_cannot_fail_clicked"
	},

	{
	"id": "fullsequencer-loop-crazy-template",
	"type": "TangleTemplate",
	"object-type-name":"TangleButton",
	"x": 680,
	"y": 250,
	"normal-background-actor": "fullsequencer-loop-crazy-texture-template",
	"@clicked": "fullsequencer_loop_crazy_clicked"
	},


	{
	"id": "fullsequencer-loop-playall-template",
	"type": "TangleTemplate",
	"object-type-name":"TangleButton",
	"x": 10,
	"y": 247, #207 is mark on background
	"normal-background-actor": "fullsequencer-loop-playall-texture-template",
	"@clicked":  "fullsequencer_loop_play_all_clicked"
	},

	{
	"id": "fullsequencer-wheel-game-tosequencer-template",
	"type": "TangleTemplate",
	"object-type-name":"TangleButton",
	"x": 675,
	"y": 380,
	"template" : "fullsequencer-button_tosequencer"
	},






#	{ #currently not used, SampleButtons are handled with C
#	"id" : "fullsequencer_wheel_sample_template",
#	"type" : "TangleTemplate",
#	"object-type-name": "JammoSampleButton",
#	"drag-threshold-y" : 1000000, # or MAX_UINT
#	"sequencer" : "fullsequencer-the-sequencer"
#	},



	{
	"id"     : "fullsequencer-loop-rhytmical-wheel-scroller-template",
	"type"     : "TangleTemplate",
	"object-type-name": "TangleWidget",
	"template" : "wheel_scroller_template",
	"x": 110,
	"background-color" : "#ffcc0044"
	},


	{
	"id"       : "fullsequencer-loop-melodical-wheel-scroller-template",
	"type"     : "TangleTemplate",
	"object-type-name": "TangleWidget",
	"template" : "wheel_scroller_template",
	"x": 256,
	"background-color" : "#0000dd44"
	},


	{
	"id"       : "fullsequencer-loop-harmonical-wheel-scroller-template",
	"type"     : "TangleTemplate",
	"object-type-name": "TangleWidget",
	"template" : "wheel_scroller_template",
	"x": 404,
	"background-color" : "#dd000044"
	},


	{
	"id"       : "fullsequencer-loop-effect-wheel-scroller-template",
	"type"     : "TangleTemplate",
	"object-type-name": "TangleWidget",
	"template" : "wheel_scroller_template",
	"background-color" : "#00dd0044",
	"x": 553
	},


	{
	"id":"fullsequencer_four_wheels_template",
	"type": "TangleTemplate",
	"object-type-name": "TangleWidget",
	"child-templates": [
		"fullsequencer-loop-rhytmical-wheel-scroller-template",
		"fullsequencer-loop-melodical-wheel-scroller-template",
		"fullsequencer-loop-harmonical-wheel-scroller-template",
		"fullsequencer-loop-effect-wheel-scroller-template"
	]
	},




	{
	"id": "fullsequencer-wheelgame-container",
	"type": "TangleTemplate",
	"object-type-name": "TangleWidget",
	"background-actor" : "fullsequencer-loop_backgound-texture",
	"width": 800,
	"height": 480,
	"child-templates": [
		"fullsequencer-loop-cannot-fail-template",
		"fullsequencer-loop-crazy-template",
		"fullsequencer-loop-playall-template",
		"fullsequencer-wheel-game-tosequencer-template",
		"fullsequencer-wheel-game-labels-template"
	]
	},
##############################################


#Sequencer-view
##########################

	{
	"id"         : "fullsequencer_cursor_indicator_template",
	"type"       : "TangleTemplate",
	"object-type-name": "TangleTexture",
	"filename"   : "sequencer/cursor_indicator.png",
	"height" : 50
	},
	{
	"id"         : "fullsequencer_cursor_texture_template",
	"type"       : "TangleTemplate",
	"object-type-name": "ClutterRectangle",
	"color"      : "#ffff00dd",
	"x" : 8,     #we know size of cursor_indicator.png
	"y" : 48,
	"width" : 11
	},


	{
	"id"         : "fullsequencer_cursor_container_template",
	"type"       : "TangleTemplate",
	"object-type-name": "TangleWidget",
	"@notify::x" : "fullsequencer_on_cursor_notify_x",
	"child-templates" : [
		"fullsequencer_cursor_indicator_template",
		"fullsequencer_cursor_texture_template"
		]
	},

	{
	"id" : "fullsequencer_cursor_template",
	"type" : "TangleTemplate",
	"object-type-name": "JammoCursor",
	"texture" : "fullsequencer_cursor_container_template",
	"sequencer" : "fullsequencer-the-sequencer",
	"depth-position" : 1
	},

	{
	"id": "fullsequencer-container-for-tracks-outer-template",
	"type": "TangleTemplate",
	"object-type-name": "TangleWidget",
	"template": "scroll-fixed-widget-template",
	"x" : 80, # width_of mute_button+volume_slider (label is background for these)
	"y" : 90,
	"width" : 720,
	"child-templates": [
"fullsequencer_cursor_template"
]
	},

	{
		"id": "fullseq-horizontal-box-layout-template",
		"type": "TangleTemplate",
		"object-type-name": "TangleBoxLayout",
		"direction": "ttb-ltr"
	},

	{
	"id": "fullsequencer-container-for-tracks-template",
	"type": "TangleTemplate",
	"object-type-name": "TangleWidget",
	"layout": "fullseq-horizontal-box-layout-template"
	},



	{
	"id"      : "fullsequencer-volumebar-backround-template",
	"type"    : "TangleTemplate",
	"object-type-name": "TangleTexture",
	"filename" : "sequencer/volume_background.png"
	},


	{
	"id"      : "fullsequencer-sequencer_backgound-texture-template",
	"type"    :"TangleTemplate",
	"object-type-name": "TangleTexture",
	"filename" : "sequencer/sequencer_background.png"
	},

	{
	"id": "fullsequencer-play-button-play-texture",
	"type":"TangleTemplate",
	"object-type-name":  "TangleTexture",
	"filename": "sequencer/button_play.png"
	},
	{
	"id": "fullsequencer-play-button-stop-texture",
	"type":"TangleTemplate",
	"object-type-name":  "TangleTexture",
	"filename": "sequencer/button_play_pressed.png"
	},



	{
	"id": "fullsequencer-metronome-start-texture",
	"type":"TangleTemplate",
	"object-type-name":  "TangleTexture",
	"filename": "sequencer/button_metronome_pressed.png" #pressed=grey-icon -> means 'not-in-use'
	},
	{
	"id": "fullsequencer-metronome-stop-texture",
	"type":"TangleTemplate",
	"object-type-name":  "TangleTexture",
	"filename": "sequencer/button_metronome.png"
	},


	{
	"id": "fullsequencer-track-control-panel-template",
	"type": "TangleTemplate",
	"object-type-name":"TangleWidget",
	"layout" : "fullsequencer-vertical-box-layout-template",
	"x" : 0,
	"y" : 90
	},


#	{
#	"id": "fullsequencer-community-texture",
#	"type":"TangleTemplate",
#	"object-type-name": "TangleTexture",
#	"filename": "sequencer/button_community.png"
#	},

	{
	"id": "fullsequencer-home-texture",
	"type":"TangleTemplate",
	"object-type-name": "TangleTexture",
	"filename": "sequencer/button_home.png"
	},


	{
	"id"      : "fullsequencer-arrow-up-texture-template",
	"type"    : "TangleTemplate",
	"object-type-name": "TangleTexture",
	"filename" : "sequencer/arrow_up.png"
	},
	{
	"id"      : "fullsequencer-arrow-down-texture-template",
	"type"    : "TangleTemplate",
	"object-type-name": "TangleTexture",
	"filename" : "sequencer/arrow_down.png"
	},

	{
	"id": "fullsequencer-arrow-up",
	"type":"TangleTemplate",
	"object-type-name": "TangleButton",
	"x": 490,
	"y": 5,
	"height" : 70,
	"normal-background-actor": "fullsequencer-arrow-up-texture-template",
	"@clicked": "sequencer_change_to_loop_view"
	},

	{
	"id": "fullsequencer-arrow-down",
	"type":"TangleTemplate",
	"object-type-name": "TangleButton",
	"x": 490,
	"y": 410,
	"height" : 70,
	"normal-background-actor": "fullsequencer-arrow-down-texture-template",
	"@clicked": "sequencer_change_to_bottom_view"
	},


	{
	"id": "fullsequencer-play",
	"type":"TangleTemplate",
	"object-type-name": "TangleButton",
	"x": 0,
	"y": 388,
	"button-mode" : "selectable",
	"normal-background-actor": "fullsequencer-play-button-play-texture",
	"selected-background-actor": "fullsequencer-play-button-stop-texture",
	"@clicked":  "fullsequencer_play_clicked",
	"@show-completed" :  "fullsequencer_play_loaded"
	},

	{
	"id": "fullsequencer-metronome",
	"type":"TangleTemplate",
	"object-type-name": "TangleButton",
	"x": 90,
	"y": 388,
	"button-mode" : "selectable",
	"normal-background-actor": "fullsequencer-metronome-start-texture",
	"selected-background-actor": "fullsequencer-metronome-stop-texture",
	"@clicked": "fullsequencer_metronome_clicked"
	},


	{
	"id"  : "fullsequencer-render",
	"type":  "TangleTemplate",
	"object-type-name": "TangleButton",
	"x"   : 180,
	"y"   : 388,
	"width" : 110,
	"height" : 90,
	"normal-background-actor": "fullsequencer-render-song-texture-template",
	"@clicked": "sequencer_render_button_pressed"
	},

	{
	"id"  : "fullsequencer-save",
	"type":  "TangleTemplate",
	"object-type-name": "TangleButton",
	"x"   : 290,
	"y"   : 400,
	"normal-background-actor": "fullsequencer-save-project-texture-template",
	"@clicked": "sequencer_save_project_button_pressed"
	},


	{ #this is not currently drawn at all
	"id"  : "fullsequencer-mysongs",
	"type":  "TangleTemplate",
	"object-type-name": "TangleButton",
	"x"   : 290,
	"y"   : 400,
	"normal-background-actor": "fullsequencer-mysongs-texture-template",
	"@clicked": "sequencer_mysongs_button_pressed"
	},



#	{
#	"id": "fullsequencer-community",
#	"type":"TangleTemplate",
#	"object-type-name": "TangleButton",
#	"x": 304,
#	"y": 388,
#	"normal-background-actor": "fullsequencer-community-texture",
#	"@clicked": "fullsequencer_community_clicked"
#	},



	{
	"id": "fullsequencer-home",
	"type":"TangleTemplate",
	"object-type-name": "TangleButton",
	"x": 404,
	"y": 388,
	"normal-background-actor": "fullsequencer-home-texture",
	"@clicked": "fullsequencer_home_clicked"
	},


	{
	"id": "volumebar-scroll-action",
	"type":"TangleTemplate",
	"object-type-name":  "TangleScrollAction",
	"bind-to-scroll-trick": true,
	"@notify::offset-y" : "sequencer_volumebar_used"
	},


	{
	"id"      : "fullsequencer-volumebar-marker-template",
	"type"    : "TangleTemplate",
	"object-type-name" : "TangleTexture",
	"filename" : "sequencer/volume_button.png",
	"width": 65
	},

	{
	"id": "fullsequencer-volumebar-scroller-template",
	"type":"TangleTemplate",
	"object-type-name": "TangleWidget",
	"layout": "scroll-vertical-box-layout-template",
	"action": "volumebar-scroll-action",
	"reactive": true,
	"clip-to-allocation": true,
	"width": 65,
	"height": 316,
	"child-templates" : [
		"fullsequencer-volumebar-marker-template"
	]
	},

	{
	"id":"fullsequencer-volumebar-container-template",
	"type":"TangleTemplate",
		"object-type-name": "TangleWidget",
	"background-actor" :  "fullsequencer-volumebar-backround-template",
	"visible" : false,
	"x": 80,
	"y": 80
	},

	{
	"id" : "editing-trackview-template",
	"type" :"TangleTemplate",
	"object-type-name": "JammoEditingTrackView",
	"reactive" : true,
	"line-every-nth-slot" : 4,
	"@show-completed" :  "fullsequencer_trackview_loaded"
	},


	{
	"id": "fullsequencer-container-for-sequencer-view-template",
	"type":"TangleTemplate",
	"object-type-name": "TangleWidget",
	"background-actor" : "fullsequencer-sequencer_backgound-texture-template",
	"width": 800,
	"height": 480,
	"child-templates": [
		"fullsequencer-arrow-up",
		"fullsequencer-arrow-down",
		"fullsequencer-play",
		"fullsequencer-render",
		"fullsequencer-save",
		#"fullsequencer-mysongs",
		"fullsequencer-metronome",
		"fullsequencer-home"
	]
	},
#######################################


#General-menu -view
##############################


	{
	"id": "fullsequencer-container-for-general-view-template",
	"type": "TangleTemplate",
	"object-type-name":  "TangleWidget",
	"background-actor" : "fullsequencer-general_backgound-texture",
	"width": 800,
	"height": 480,
	"child-templates": [
		"fullsequencer-general-tosequencer",
		"fullsequencer-general-background-for-pitch-template",
		"fullsequencer-general-background-for-tempo-template"
	]
	},

	{
	"id"      : "fullsequencer-general_backgound-texture",
	"type"    : "TangleTemplate",
	"object-type-name":"TangleTexture",
	"filename" : "sequencer/general_background.png"
	},


	{
	"id": "fullsequencer-general-tosequencer",
	"type": "TangleTemplate",
	"object-type-name":"TangleButton",
	"x": 675,
	"y": 3,
	"template" : "fullsequencer-button_tosequencer"
	},


	{
	"id"      : "fullsequencer-general-back-for-tempopitch-texture-template",
	"type"    : "TangleTemplate",
	"object-type-name":"TangleTexture",
	"filename" : "sequencer/tempo_pitch_switch_background.png"
	},


	{
	"id"      : "fullsequencer-general-background-for-pitch-template",
	"type"    : "TangleTemplate",
	"object-type-name":"TangleWidget",
	"depth-position" : 0,
	"x" : 120,
	"y" : 0,
	"background-actor":"fullsequencer-general-back-for-tempopitch-texture-template"
	},
	{
	"id"      : "fullsequencer-general-background-for-tempo-template",
	"type"    : "TangleTemplate",
	"object-type-name":"TangleWidget",
	"depth-position" : 0,
	"x" : 330,
	"y" : 0,
	"background-actor":"fullsequencer-general-back-for-tempopitch-texture-template"
	},



	{
	"id"      : "pitch-button-texture-template",
	"type"    : "TangleTemplate",
	"object-type-name": "TangleTexture",
	"filename" : "sequencer/pitch_${name}_deselected.png"
	},

	{
	"id"      : "pitch-button-selected-texture-template",
	"type"    : "TangleTemplate",
	"object-type-name": "TangleTexture",
	"filename" : "sequencer/pitch_${name}_selected.png"
	},
	{
	"id" : "pitch-button-template",
	"type" : "TangleTemplate",
	"object-type-name": "TangleButton",
	"normal-background-actor": "pitch-button-texture-template",
	"selected-background-actor": "pitch-button-selected-texture-template",
	"@clicked" : "fullsequencer_general_pitch_clicked",
	"name" : "${name}",
	"button-mode" : "radio",
	"x"       : 120,
	"depth-position" : 1,
	"height" : 150
	},

	{
	"id"      : "tempo-button-texture-template",
	"type"    : "TangleTemplate",
	"object-type-name": "TangleTexture",
	"filename" : "sequencer/tempo_${name}_deselected.png"
	},

	{
	"id"      : "tempo-button-selected-texture-template",
	"type"    : "TangleTemplate",
	"object-type-name": "TangleTexture",
	"filename" : "sequencer/tempo_${name}_selected.png"
	},


	{
	"id" : "tempo-button-template",
	"type" : "TangleTemplate",
	"object-type-name": "TangleButton",
	"normal-background-actor": "tempo-button-texture-template",
	"selected-background-actor": "tempo-button-selected-texture-template",
	"@clicked" : "fullsequencer_general_tempo_clicked",
	"name" : "${name}",
	"button-mode" : "radio",
	"x"       : 330,
	"depth-position" : 1,
	"height" : 150
	},



################################################


#Label images for tracks
########################
#TODO: should be handled with 'parameters', but template of template doesn't handle.

# Types for label
#sequencer/label_backingtrack.png
#sequencer/label_loop_effect.png
#sequencer/label_loop_harmony.png
#sequencer/label_loop_melody.png
#sequencer/label_loop_rhythm.png
#sequencer/label_drum.png
#sequencer/label_keyboard.png
#sequencer/label_slider.png
#sequencer/label_audio.png


	{
	"id" : "track_label_texture_for_panel_template_audio",
	"type": "TangleTemplate",
	"object-type-name" :  "TangleTexture",
	"filename"   : "sequencer/label_audio.png"
	},
	{
	"id" : "track_label_for_panel_template_audio",
	"type" : "TangleTemplate",
	"object-type-name" : "TangleButton",
	"@clicked" : "pressed_sequencer_button_track_label",
	"normal-background-actor": "track_label_texture_for_panel_template_audio"
	},


	{
	"id" : "track_label_texture_for_panel_template_drum",
	"type": "TangleTemplate",
	"object-type-name" :  "TangleTexture",
	"filename"   : "sequencer/label_drum.png"
	},
	{
	"id" : "track_label_for_panel_template_drum",
	"type" : "TangleTemplate",
	"object-type-name" : "TangleButton",
	"@clicked" : "pressed_sequencer_button_track_label",
	"normal-background-actor": "track_label_texture_for_panel_template_drum"
	},


	{
	"id" : "track_label_texture_for_panel_template_keyboard",
	"type": "TangleTemplate",
	"object-type-name" :  "TangleTexture",
	"filename"   : "sequencer/label_keyboard.png"
	},
	{
	"id" : "track_label_for_panel_template_keyboard",
	"type" : "TangleTemplate",
	"object-type-name" : "TangleButton",
	"@clicked" : "pressed_sequencer_button_track_label",
	"normal-background-actor": "track_label_texture_for_panel_template_keyboard"
	},


	{
	"id" : "track_label_texture_for_panel_template_slider",
	"type": "TangleTemplate",
	"object-type-name" :  "TangleTexture",
	"filename"   : "sequencer/label_slider.png"
	},
	{
	"id" : "track_label_for_panel_template_slider",
	"type" : "TangleTemplate",
	"object-type-name" : "TangleButton",
	"@clicked" : "pressed_sequencer_button_track_label",
	"normal-background-actor": "track_label_texture_for_panel_template_slider"
	},


	{
	"id" : "track_label_texture_for_panel_template_backingtrack",
	"type": "TangleTemplate",
	"object-type-name" :  "TangleTexture",
	"filename"   : "sequencer/label_backingtrack.png"
	},
	{
	"id" : "track_label_for_panel_template_backingtrack",
	"type" : "TangleTemplate",
	"object-type-name" : "TangleButton",
	"@clicked" : "pressed_sequencer_button_track_label",
	"normal-background-actor": "track_label_texture_for_panel_template_backingtrack"
	},

	{
	"id" : "track_label_texture_for_panel_template_loop_effect",
	"type": "TangleTemplate",
	"object-type-name" :  "TangleTexture",
	"filename"   : "sequencer/label_loop_effect.png"
	},
	{
	"id" : "track_label_for_panel_template_loop_effect",
	"type" : "TangleTemplate",
	"object-type-name" : "TangleButton",
	"@clicked" : "pressed_sequencer_button_track_label",
	"normal-background-actor": "track_label_texture_for_panel_template_loop_effect"
	},

	{
	"id" : "track_label_texture_for_panel_template_loop_harmony",
	"type": "TangleTemplate",
	"object-type-name" :  "TangleTexture",
	"filename"   : "sequencer/label_loop_harmony.png"
	},
	{
	"id" : "track_label_for_panel_template_loop_harmony",
	"type" : "TangleTemplate",
	"object-type-name" : "TangleButton",
	"@clicked" : "pressed_sequencer_button_track_label",
	"normal-background-actor": "track_label_texture_for_panel_template_loop_harmony"
	},

	{
	"id" : "track_label_texture_for_panel_template_loop_melody",
	"type": "TangleTemplate",
	"object-type-name" :  "TangleTexture",
	"filename"   : "sequencer/label_loop_melody.png"
	},
	{
	"id" : "track_label_for_panel_template_loop_melody",
	"type" : "TangleTemplate",
	"object-type-name" : "TangleButton",
	"@clicked" : "pressed_sequencer_button_track_label",
	"normal-background-actor": "track_label_texture_for_panel_template_loop_melody"
	},

	{
	"id" : "track_label_texture_for_panel_template_loop_rhythm",
	"type": "TangleTemplate",
	"object-type-name" :  "TangleTexture",
	"filename"   : "sequencer/label_loop_rhythm.png"
	},
	{
	"id" : "track_label_for_panel_template_loop_rhythm",
	"type" : "TangleTemplate",
	"object-type-name" : "TangleButton",
	"@clicked" : "pressed_sequencer_button_track_label",
	"normal-background-actor": "track_label_texture_for_panel_template_loop_rhythm"
	},




	{
	"id" : "fullsequencer-controls-template-all",
	"type": "TangleTemplate",
	"object-type-name": "TangleWidget",
	"layout": "horizontal-box-layout-template",
	"child-templates" : [
		"mute_button_for_panel_template",
		"volume_button_for_panel_template"
	]
	},


	{
	"id" : "fullsequencer-controls-template-audio",
	"type": "TangleTemplate",
	"object-type-name": "TangleWidget",
	"template":  "fullsequencer-controls-template-all",
	"child-templates" : [
		 "track_label_for_panel_template_audio"
	]
	},
	{
	"id" : "fullsequencer-controls-template-drum",
	"type": "TangleTemplate",
	"object-type-name": "TangleWidget",
	"template":  "fullsequencer-controls-template-all",
	"child-templates" : [
		 "track_label_for_panel_template_drum"
	]
	},
	{
	"id" : "fullsequencer-controls-template-keyboard",
	"type": "TangleTemplate",
	"object-type-name": "TangleWidget",
	"template":  "fullsequencer-controls-template-all",
	"child-templates" : [
		 "track_label_for_panel_template_keyboard"
	]
	},
	{
	"id" : "fullsequencer-controls-template-slider",
	"type": "TangleTemplate",
	"object-type-name": "TangleWidget",
	"template":  "fullsequencer-controls-template-all",
	"child-templates" : [
		 "track_label_for_panel_template_slider"
	]
	},

	{
	"id" : "fullsequencer-controls-template-backingtrack",
	"type": "TangleTemplate",
	"object-type-name": "TangleWidget",
	"template":  "fullsequencer-controls-template-all",
	"background-actor" : "track_label_texture_for_panel_template_backingtrack"
	},
	{
	"id" : "fullsequencer-controls-template-effect",
	"type": "TangleTemplate",
	"object-type-name": "TangleWidget",
	"template":  "fullsequencer-controls-template-all",
	"background-actor" : "track_label_texture_for_panel_template_loop_effect"
	},
	{
	"id" : "fullsequencer-controls-template-harmony",
	"type": "TangleTemplate",
	"object-type-name": "TangleWidget",
	"template":  "fullsequencer-controls-template-all",
	"background-actor" : "track_label_texture_for_panel_template_loop_harmony"
	},
	{
	"id" : "fullsequencer-controls-template-melody",
	"type": "TangleTemplate",
	"object-type-name": "TangleWidget",
	"template":  "fullsequencer-controls-template-all",
	"background-actor" : "track_label_texture_for_panel_template_loop_melody"
	},
	{
	"id" : "fullsequencer-controls-template-rhythm",
	"type": "TangleTemplate",
	"object-type-name": "TangleWidget",
	"template":  "fullsequencer-controls-template-all",
	"background-actor" : "track_label_texture_for_panel_template_loop_rhythm"
	}



]

