[

	{
		"id": "jammo7_12_main-layout",
		"type": "TangleStackLayout"
	},

	{
		"id": "jammo7_12_main-views-layout",
		"type": "TangleStackLayout"
	},



	{
	"id" : "mute_button_texture_for_panel_template",
	"type" :"TangleTemplate",
	"object-type-name": "TangleTexture",
	"filename" : "sequencer/button_mute.png"
	},

	{
	"id" : "mute_button_texture_pressed_for_panel_template",
	"type" :"TangleTemplate",
	"object-type-name": "TangleTexture",
	"filename" : "sequencer/button_mute_pressed.png"
	},

	{
	"id" : "mute_button_for_panel_template",
	"type" :"TangleTemplate",
	"object-type-name": "TangleButton",
	"button-mode" : "selectable",
	"normal-background-actor": "mute_button_texture_for_panel_template",
	"selected-background-actor": "mute_button_texture_pressed_for_panel_template",
	"@clicked": "pressed_sequencer_button_mute"
	},


	{
	"id" : "volume_button_background_texture_for_panel_template",
	"type" :"TangleTemplate",
	"object-type-name": "TangleTexture",
	"filename" : "sequencer/small_volume_background.png"
	},

	{
	"id" : "volume_button_nub_texture_for_panel_template",
	"type" :"TangleTemplate",
	"object-type-name": "TangleTexture",
	"filename" : "sequencer/small_volume_button.png"
	},

	{
	"id" : "volume_button_texture_for_panel_template",
	"type" :"TangleTemplate",
	"object-type-name": "TangleWidget",
	"background-actor" : "volume_button_background_texture_for_panel_template",
	"child-templates": [ "volume_button_nub_texture_for_panel_template"]
	},


	{
	"id" : "volume_button_nub_selected_texture_for_panel_template",
	"type" :"TangleTemplate",
	"object-type-name": "TangleTexture",
	"filename" : "sequencer/small_volume_button_selected.png"
	},

	{
	"id" : "volume_button_selected_texture_for_panel_template",
	"type" :"TangleTemplate",
	"object-type-name": "TangleWidget",
	"background-actor" : "volume_button_background_texture_for_panel_template",
	"child-templates": [ "volume_button_nub_selected_texture_for_panel_template"]
	},





	{
	"id" : "volume_button_for_panel_template",
	"type" :"TangleTemplate",
	"object-type-name": "TangleButton",
	"button-mode" : "selectable",
	"normal-background-actor": "volume_button_texture_for_panel_template",
	"selected-background-actor": "volume_button_selected_texture_for_panel_template",
	"@clicked": "pressed_sequencer_button_volume"
	},


	{
		"id": "repeat-scroll-trick-template",
		"type": "TangleTemplate",
		"object-type-name": "TangleScrollTrick",
		"repeat-axis": "xy-axis"
	},
	{
		"id": "repeat-horizontal-scroll-box-layout-template",
		"type": "TangleTemplate",
		"object-type-name": "TangleBoxLayout",
		"trick": "repeat-scroll-trick-template"
	},
	{
		"id": "repeat-vertical-scroll-box-layout-template",
		"type": "TangleTemplate",
		"object-type-name": "TangleBoxLayout",
		"direction": "ttb-ltr",
		"trick": "repeat-scroll-trick-template"
	},
	{
		"id": "continuous-x-scroll-action-template",
		"type": "TangleTemplate",
		"object-type-name": "TangleScrollAction",
		"bind-to-scroll-trick": true,
		"continuous-x": true,
		"continuous-y": false 
	},
	{
		"id": "continuous-y-scroll-action-template",
		"type": "TangleTemplate",
		"object-type-name": "TangleScrollAction",
		"bind-to-scroll-trick": true,
		"continuous-x": false,
		"continuous-y": true
	},
	{
		"id": "continuous-horizontal-scroll-box-widget-template",
		"type": "TangleTemplate",
		"object-type-name": "TangleWidget",
		"layout": "repeat-horizontal-scroll-box-layout-template",
		"action": "continuous-x-scroll-action-template",
		"reactive": true,
		"clip-to-allocation": true
	}, 
	{
		"id": "continuous-vertical-scroll-box-widget-template",
		"type": "TangleTemplate",
		"object-type-name": "TangleWidget",
		"layout": "repeat-vertical-scroll-box-layout-template",
		"action": "continuous-y-scroll-action-template",
		"reactive": true,
		"clip-to-allocation": true
	}, 

	{
		"id": "non-continuous-y-scroll-action-template",
		"type": "TangleTemplate",
		"object-type-name": "TangleScrollAction",
		"bind-to-scroll-trick": true,
		"continuous-x": false,
		"continuous-y": false
	},



	{
		"id": "scroll-trick-template",
		"type": "TangleTemplate",
		"object-type-name": "TangleScrollTrick"
	},

	{
		"id": "horizontal-scroll-trick-template",
		"type": "TangleTemplate",
		"object-type-name": "TangleScrollTrick",
		"axis": "x-axis"
	},

	{
		"id": "scroll-fixed-layout-template",
		"type": "TangleTemplate",
		"object-type-name": "TangleFixedLayout",
		"trick": "scroll-trick-template"
	},
	{
		"id": "scroll-action-template",
		"type": "TangleTemplate",
		"object-type-name": "TangleScrollAction",
		"bind-to-scroll-trick": true
	},
	{
		"id": "threshold-scroll-action-template",
		"type": "TangleTemplate",
		"object-type-name": "TangleScrollAction",
		"bind-to-scroll-trick": true,
		"threshold-x": 45,
		"threshold-y": 45
	},
	{
		"id": "scroll-fixed-widget-template",
		"type": "TangleTemplate",
		"object-type-name": "TangleWidget",
		"layout": "scroll-fixed-layout-template",
		"action": "scroll-action-template",
		"reactive": true,
		"clip-to-allocation": true
	},

	{
		"id": "scroll-vertical-box-layout-template",
		"type": "TangleTemplate",
		"object-type-name": "TangleBoxLayout",
		"trick": "scroll-trick-template",
		"direction": "ttb-ltr"
	},

	{
		"id": "horizontal-scroll-vertical-box-layout-template",
		"type": "TangleTemplate",
		"object-type-name": "TangleBoxLayout",
		"trick": "horizontal-scroll-trick-template",
		"direction": "ttb-ltr"
	},
	{
		"id": "scroll-vertical-box-widget-template",
		"type": "TangleTemplate",
		"object-type-name": "TangleWidget",
		"layout": "scroll-vertical-box-layout-template",
		"action": "scroll-action-template",
		"reactive": true,
		"clip-to-allocation": true
	},
	{
		"id": "threshold-scroll-vertical-box-widget-template",
		"type": "TangleTemplate",
		"object-type-name": "TangleWidget",
		"layout": "scroll-vertical-box-layout-template",
		"action": "threshold-scroll-action-template",
		"reactive": true,
		"clip-to-allocation": true
	},
	{
		"id": "horizontal-scroll-vertical-box-widget-template",
		"type": "TangleTemplate",
		"object-type-name": "TangleWidget",
		"layout": "horizontal-scroll-vertical-box-layout-template",
		"action": "scroll-action-template",
		"reactive": true,
		"clip-to-allocation": true
	},

	{
		"id": "scroll-horizontal-box-layout-template",
		"type": "TangleTemplate",
		"object-type-name": "TangleBoxLayout",
		"trick": "scroll-trick-template",
		"direction": "ltr-ttb"
	},
	{
		"id": "scroll-horizontal-box-widget-template", 
		"type": "TangleTemplate",
		"object-type-name": "TangleWidget",
		"layout": "scroll-horizontal-box-layout-template",
		"action": "scroll-action-template",
		"reactive": true,
		"clip-to-allocation": true
	},

	{
		"id": "vertical-box-layout-template",
		"type": "TangleTemplate",
		"object-type-name": "TangleBoxLayout",
		"direction": "ttb-ltr"
	},



	{
		"id": "fullsequencer-vertical-box-layout-template",
		"type": "TangleTemplate",
		"object-type-name": "TangleBoxLayout",
		"direction": "ttb-ltr"
	},

	{
		"id": "horizontal-box-layout-template",
		"type": "TangleTemplate",
		"object-type-name": "TangleBoxLayout",
		"direction": "ltr-ttb"
	},




	{
	"id": "background-texture-template",
	"type": "TangleTemplate",
	"object-type-name": "TangleTexture",
	"filename": "${background_filename}"
	},


	{

	"id": "background-template",
	"type": "TangleTemplate",
	"object-type-name": "TangleWidget",
	"background-actor": "background-texture-template",
	"x": 0,
	"y": 0,
	"width" : 800,
	"height" : 480,
	"depth-position": -10,
	"reactive" : true
	},
	
	{
		"id": "jammosongs-background",
		"type": "TangleTexture",
		"filename": "communitymenu/community_mainview_background.png",
		"width"   : 800,
		"height"  : 480
	},	
	
	{
		"id": "jammosounds-background",
		"type": "TangleTexture",
		"filename": "communitymenu/community_mainview_background.png",
		"width"   : 800,
		"height"  : 480
	},	
	
	{
		"id": "mysongs-background",
		"type": "TangleTexture",
		"filename": "communitymenu/community_mainview_background.png",
		"width"   : 800,
		"height"  : 480
	},	

	{
		"id": "discuss-background",
		"type": "TangleTexture",
		"filename": "communitymenu/Community_discussion_background.png",
		"width"   : 800,
		"height"  : 480
	},	


	{
		"id": "threads-background",
		"type": "TangleTexture",
		"filename": "communitymenu/community_paper_background.png",
		"width"   : 800,
		"height"  : 480
	},

	{
		"id": "addthread-background",
		"type": "TangleTexture",
		"filename": "communitymenu/community_paper_background.png",
		"width"   : 800,
		"height"  : 480
	},

	{
		"id": "workshop-background",
		"type": "TangleTexture",
		"filename": "communitymenu/community_mainview_background.png",
		"width"   : 800,
		"height"  : 480
	},

	{
		"id": "single-thread-view-background",
		"type": "TangleTexture",
		"filename":"communitymenu/community_paper_background.png",
		"width":800,
		"height":480
	
	},


	{
		"id": "avatar-view-background",
		"type": "TangleTexture",
		"filename":"communitymenu/community_mainview_background.png",
		"width":800,
		"height":480
	
	},	


	{
		"id": "record-cover-view-background",
		"type": "TangleTexture",
		"filename":"communitymenu/community_mainview_background.png",
		"width":800,
		"height":480
	
	},
	
	{
		"id": "record-label-viewer-background",
		"type": "TangleTexture",
		"filename": "communitymenu/community_mainview_background.png",
		"width":800,
		"height":480
	},
	
	{
		"id": "main-views-widget",
		"type": "TangleWidget",
		"layout": "jammo7_12_main-views-layout",
		"children": [

			{
				"id": "fullsequencer-view",
				"type": "TangleView",
				"filename": "fullsequencer.json",
				"show-on-set-parent": false,
				"visible": false
			},

			{
				"id": "startmenu-view",
				"type": "TangleView",
				"filename": "startmenu.json",
				"show-on-set-parent": true,
				"visible": true
			},

			{
				"id": "gamesmenu-view",
				"type": "TangleView",
				"filename": "gamesmenu.json",
				"show-on-set-parent": false,
				"visible": false
			},

			{
				"id": "level1-view",
				"type": "TangleView",
				"filename": "level1.json",
				"show-on-set-parent": false,
				"visible": false
			},

			{
				"id": "level_sandbox_4loops-view",
				"type": "TangleView",
				"filename": "level_sandbox_4loops.json",
				"show-on-set-parent": false,
				"visible": false
			},

			{
				"id": "level3-view",
				"type": "TangleView",
				"filename": "level3.json",
				"show-on-set-parent": false,
				"visible": false
			},

			{
				"id": "level4-view",
				"type": "TangleView",
				"filename": "level4.json",
				"show-on-set-parent": false,
				"visible": false
			},

			{
				"id": "level_singing-view",
				"type": "TangleView",
				"filename": "level_singing.json",
				"show-on-set-parent": false,
				"visible": false
			},

			{
				"id": "jammer-view",
				"type": "TangleView",
				"filename": "jammer-view.json",
				"show-on-set-parent": false,
				"visible": false
			},

			{
				"id": "empty-level-view",
				"type": "TangleView",
				"filename": "empty-level.json",
				"show-on-set-parent": false,
				"visible": false
			},

			{
				"id": "backingtrack-selection-view",
				"type": "TangleView",
				"filename": "backingtrack_selection.json",
				"show-on-set-parent": false,
				"visible": false,
				"@show-completed": "backingtrack_selection_show_completed"
			},

			{
				"id": "communitymenu-view",
				"type": "TangleView",
				"filename": "communitymenu.json",
				"show-on-set-parent": false,
				"visible": false
			},

			{
				"id": "midieditor-view",
				"type": "TangleView",
				"filename": "midieditor.json",
				"show-on-set-parent": false,
				"visible": false
			},

			{
				"id": "instrumentmenu-view",
				"type": "TangleView",
				"background-color": "#a2351d",
				"filename": "instrumentmenu_view.json",
				"show-on-set-parent": false,
				"visible": false
			},

			{
				"id": "instrument-view",
				"type": "TangleView",
				"background-color": "#a2351d",
				"filename": "instrument_view.json",
				"show-on-set-parent": false,
				"visible": false
			},

			{
				"id": "singing-view",
				"type": "TangleView",
				"filename": "singing_view.json",
				"show-on-set-parent": false,
				"visible": false
			},

			{
				"id": "workshop-view",
				"type": "TangleView",
				"background-actor": "workshop-background",
				"filename": "workshop_view.json",
				"show-on-set-parent": false,
				"visible": false
			},


			{
				"id": "discuss-view",
				"type": "TangleView",
				"background-actor": "discuss-background",
				"filename": "discuss_view.json",
				"show-on-set-parent": false,
				"visible": false
			},

			{
				"id": "threads-view",
				"type": "TangleView",
				"background-actor": "threads-background",
				"filename": "threads_view.json",
				"show-on-set-parent": false,
				"visible": false
			},

			{
				"id": "addthread-view",
				"type": "TangleView",
				"background-actor": "addthread-background",
				"filename": "addthread_view.json",
				"show-on-set-parent": false,
				"visible": false
			},
			
			{
				"id": "mysongs-view",
				"type": "TangleView",
				"background-actor": "mysongs-background",
				"filename": "mysongs_view.json",
				"show-on-set-parent": false,
				"visible": false
			},
			
			{
				"id": "jammosongs-view",
				"type": "TangleView",
				"background-actor": "jammosongs-background",
				"filename": "jammosongs_view.json",
				"show-on-set-parent": false,
				"visible": false
			},
			
			{
				"id": "jammosounds-view",
				"type": "TangleView",
				"background-actor": "jammosounds-background",
				"filename": "jammosounds_view.json",
				"show-on-set-parent": false,
				"visible": false
			},
			
			{
				"id": "single-thread-view",
				"type": "TangleView",
				"background-actor": "single-thread-view-background",
				"filename": "single_thread_view.json",
				"show-on-set-parent":false,
				"visible":false
			
			},


			{
				"id": "avatar-view",
				"type": "TangleView",
				"background-actor": "avatar-view-background",
				"filename": "avatar_editor.json",
				"show-on-set-parent":false,
				"visible":false
			
			},


			{
				"id": "record-cover-view",
				"type": "TangleView",
				"background-actor": "record-cover-view-background",
				"filename": "record_cover_tool.json",
				"show_on_set_parent": false,
				"visible": false
			
			},
			
			{
				"id": "record-label-viewer",
				"type": "TangleView",
				"background-actor": "record-label-viewer-background",
				"filename": "record_label_viewer.json",
				"show_on_set_parent": false,
				"visible": false
			
			}			
					

	]
	},


	{
		"id": "mentor-texture",
		"type": "TangleTexture",
		"filename": "startmenu/mrjammo.png"
	},

	{
		"id": "main-mentor-widget",
		"type": "TangleWidget",
		"pickable": false,
		"depth-position": 10,
		"children": [
			{
				"id": "mentor",
				"type": "JammoMentor",
				"normal-background-actor": "mentor-texture",
				"standby-scale": 0.3,
				"active-scale": 1.5,
				"idle-timeout": 10,
				"x": 0.0,
				"y": 0.0
			}
		]
		
	},
	


	{
	"id" : "wait",
	"type" : "TangleWidget",
	"depth-position" : 9,
	"visible" : false,
	"children" : [
		{
		"id": "wait-texture",
		"type": "TangleTexture",
		"x" : 370,
		"y" : 100,
		"filename": "sequencer/hourglass.png"
		}
	]
	},
	
	{
		"id": "main",
		"type": "TangleWidget",
		"width": 800.0,
		"height": 480.0,
		"layout": "jammo7_12_main-layout",
		"children": [
			"main-views-widget",
			"main-mentor-widget",
			"wait"
		]
	}




]
