[

	{
	 "id"		: "workshop_down-index",
	 "type"		: "TangleWidget",
	 "depth-position": 1,
	 "y"          : "350",
	 "x"          : "0",		 
	 "children": [
		{
		  "id"	       : "workshop-down-index-image",
		  "type"       : "TangleTexture",
		  "filename"   : "communitymenu/downmenu_background.png"
		
		}
		]
	},
	
	{
	 "id"		: "workshop_right-index",
	 "type"		: "TangleWidget",
	 "depth-position": 0,
	"x"         	: "652",
	"y"          	: "0",		 
	"children": [
		{
		  "id"         : "workshop-right-index-image",
		  "type"       : "TangleTexture", 
		  "filename"   : "communitymenu/community_rightsidebackground.png"
	
	
		}
	]
	},


	{ 
	"id"         	: "workshop_home_texture",
	"type"       	: "TangleTexture",
	"filename"   	: "sequencer/button_home.png"
	},


	{
	"id"         	: "workshop_mentor_texture",
	"type"       	: "TangleTexture",
	"filename"   	: "communitymenu/community_mentor_icon.png"
	},

	{
	"id" : "workshop_community_texture",
	"type" : "TangleTexture",
	"filename" : "communitymenu/community_umsic_icon.png"
	},

	{
		"id"		: "workshop-button-container",
		"type"		: "TangleWidget",
		"depth-position": 9,
		"children"	:	[

					{ 
					"id" : "workshop_gotocommunity",
					"type" : "TangleButton",
					"x" : 508,
					"y" : 405,
					"normal-background-actor" : "workshop_community_texture",
					"@clicked" : "workshop_goto_communitymenu"
					},

					{ 
					"id" : "workshop_gohome",
					"type" : "TangleButton",
					"x" : 590,
					"y" : 385,
					"normal-background-actor" : "workshop_home_texture",
					"@clicked" : "workshop_goto_startmenu"
					},

      					{
        				"id" : "workshop-mentor",
					"type" : "TangleButton",
       					"x" : 690,
       					"y" : 390,
					"normal-background-actor": "workshop_mentor_texture",
					"@clicked": "workshop_mentor_clicked"
      					}

					]	
	},

	{
		"id"		: "workshop-songs-list-scrollable",
		"type"		: "TangleWidget",
		"x"		: "0",
		"y"		: "0",
		"width"		: "800",
		"height"	: "450",
		"template"	: "continuous-vertical-scroll-box-widget-template"
	},
	
	{
		"id"		: "workshop-songs-list-unscrollable",
		"type"		: "TangleWidget",
		"x"		: "0",
		"y"		: "0",
		"width"		: "800",
		"height"	: "450",
		"layout"	: "repeat-vertical-scroll-box-layout-template"  
	}

]
